[{
	"SalesOrderID": "SalesOrderID 1",
	"ItemPosition": "ItemPosition 1",
	"ProductID": "ProductID 1",
	"Note": "Note 1",
	"NoteLanguage": "NoteLanguage 1",
	"CurrencyCode": "CurrencyCode 1",
	"GrossAmount": 1313.83,
	"NetAmount": 5030.02,
	"TaxAmount": 136.61,
	"DeliveryDate": "/Date(1230725280000)/",
	"Quantity": 1.75,
	"QuantityUnit": "QuantityUnit 1",
	"__metadata": {
		"uri": "SalesOrderLineItemSet(SalesOrderID='SalesOrderID%201',ItemPosition='ItemPosition%201')",
		"type": "GWSAMPLE_BASIC.SalesOrderLineItem"
	},
	"ToHeader": {
		"__deferred": {
			"uri": "SalesOrderLineItemSet(SalesOrderID='SalesOrderID%201',ItemPosition='ItemPosition%201')/ToHeader"
		}
	},
	"ToProduct": {
		"__deferred": {
			"uri": "SalesOrderLineItemSet(SalesOrderID='SalesOrderID%201',ItemPosition='ItemPosition%201')/ToProduct"
		}
	}
}, {
	"SalesOrderID": "SalesOrderID 2",
	"ItemPosition": "ItemPosition 2",
	"ProductID": "ProductID 2",
	"Note": "Note 2",
	"NoteLanguage": "NoteLanguage 2",
	"CurrencyCode": "CurrencyCode 2",
	"GrossAmount": 7301.52,
	"NetAmount": 5314.37,
	"TaxAmount": 8072.47,
	"DeliveryDate": "/Date(1134130080000)/",
	"Quantity": 2525.02,
	"QuantityUnit": "QuantityUnit 2",
	"__metadata": {
		"uri": "SalesOrderLineItemSet(SalesOrderID='SalesOrderID%202',ItemPosition='ItemPosition%202')",
		"type": "GWSAMPLE_BASIC.SalesOrderLineItem"
	},
	"ToHeader": {
		"__deferred": {
			"uri": "SalesOrderLineItemSet(SalesOrderID='SalesOrderID%202',ItemPosition='ItemPosition%202')/ToHeader"
		}
	},
	"ToProduct": {
		"__deferred": {
			"uri": "SalesOrderLineItemSet(SalesOrderID='SalesOrderID%202',ItemPosition='ItemPosition%202')/ToProduct"
		}
	}
}, {
	"SalesOrderID": "SalesOrderID 3",
	"ItemPosition": "ItemPosition 3",
	"ProductID": "ProductID 3",
	"Note": "Note 3",
	"NoteLanguage": "NoteLanguage 3",
	"CurrencyCode": "CurrencyCode 3",
	"GrossAmount": 9818.01,
	"NetAmount": 9547.61,
	"TaxAmount": 9812.9,
	"DeliveryDate": "/Date(1485864480000)/",
	"Quantity": 4927.14,
	"QuantityUnit": "QuantityUnit 3",
	"__metadata": {
		"uri": "SalesOrderLineItemSet(SalesOrderID='SalesOrderID%203',ItemPosition='ItemPosition%203')",
		"type": "GWSAMPLE_BASIC.SalesOrderLineItem"
	},
	"ToHeader": {
		"__deferred": {
			"uri": "SalesOrderLineItemSet(SalesOrderID='SalesOrderID%203',ItemPosition='ItemPosition%203')/ToHeader"
		}
	},
	"ToProduct": {
		"__deferred": {
			"uri": "SalesOrderLineItemSet(SalesOrderID='SalesOrderID%203',ItemPosition='ItemPosition%203')/ToProduct"
		}
	}
}, {
	"SalesOrderID": "SalesOrderID 4",
	"ItemPosition": "ItemPosition 4",
	"ProductID": "ProductID 4",
	"Note": "Note 4",
	"NoteLanguage": "NoteLanguage 4",
	"CurrencyCode": "CurrencyCode 4",
	"GrossAmount": 5601.48,
	"NetAmount": 733.2,
	"TaxAmount": 5692.5,
	"DeliveryDate": "/Date(1545912480000)/",
	"Quantity": 572.29,
	"QuantityUnit": "QuantityUnit 4",
	"__metadata": {
		"uri": "SalesOrderLineItemSet(SalesOrderID='SalesOrderID%204',ItemPosition='ItemPosition%204')",
		"type": "GWSAMPLE_BASIC.SalesOrderLineItem"
	},
	"ToHeader": {
		"__deferred": {
			"uri": "SalesOrderLineItemSet(SalesOrderID='SalesOrderID%204',ItemPosition='ItemPosition%204')/ToHeader"
		}
	},
	"ToProduct": {
		"__deferred": {
			"uri": "SalesOrderLineItemSet(SalesOrderID='SalesOrderID%204',ItemPosition='ItemPosition%204')/ToProduct"
		}
	}
}, {
	"SalesOrderID": "SalesOrderID 5",
	"ItemPosition": "ItemPosition 5",
	"ProductID": "ProductID 5",
	"Note": "Note 5",
	"NoteLanguage": "NoteLanguage 5",
	"CurrencyCode": "USD",
	"GrossAmount": 1869.18,
	"NetAmount": 2893.69,
	"TaxAmount": 4516.28,
	"DeliveryDate": "/Date(1316948880000)/",
	"Quantity": 2498.76,
	"QuantityUnit": "QuantityUnit 5",
	"__metadata": {
		"uri": "SalesOrderLineItemSet(SalesOrderID='SalesOrderID%205',ItemPosition='ItemPosition%205')",
		"type": "GWSAMPLE_BASIC.SalesOrderLineItem"
	},
	"ToHeader": {
		"__deferred": {
			"uri": "SalesOrderLineItemSet(SalesOrderID='SalesOrderID%205',ItemPosition='ItemPosition%205')/ToHeader"
		}
	},
	"ToProduct": {
		"__deferred": {
			"uri": "SalesOrderLineItemSet(SalesOrderID='SalesOrderID%205',ItemPosition='ItemPosition%205')/ToProduct"
		}
	}
}, {
	"SalesOrderID": "SalesOrderID 6",
	"ItemPosition": "ItemPosition 6",
	"ProductID": "ProductID 6",
	"Note": "Note 6",
	"NoteLanguage": "NoteLanguage 6",
	"CurrencyCode": "CurrencyCode 6",
	"GrossAmount": 9431.16,
	"NetAmount": 7425.31,
	"TaxAmount": 6621.26,
	"DeliveryDate": "/Date(1088420880000)/",
	"Quantity": 8004.19,
	"QuantityUnit": "QuantityUnit 6",
	"__metadata": {
		"uri": "SalesOrderLineItemSet(SalesOrderID='SalesOrderID%206',ItemPosition='ItemPosition%206')",
		"type": "GWSAMPLE_BASIC.SalesOrderLineItem"
	},
	"ToHeader": {
		"__deferred": {
			"uri": "SalesOrderLineItemSet(SalesOrderID='SalesOrderID%206',ItemPosition='ItemPosition%206')/ToHeader"
		}
	},
	"ToProduct": {
		"__deferred": {
			"uri": "SalesOrderLineItemSet(SalesOrderID='SalesOrderID%206',ItemPosition='ItemPosition%206')/ToProduct"
		}
	}
}, {
	"SalesOrderID": "SalesOrderID 7",
	"ItemPosition": "ItemPosition 7",
	"ProductID": "ProductID 7",
	"Note": "Note 7",
	"NoteLanguage": "NoteLanguage 7",
	"CurrencyCode": "CurrencyCode 7",
	"GrossAmount": 6992.75,
	"NetAmount": 6219.04,
	"TaxAmount": 9356.75,
	"DeliveryDate": "/Date(1074254880000)/",
	"Quantity": 6745.45,
	"QuantityUnit": "QuantityUnit 7",
	"__metadata": {
		"uri": "SalesOrderLineItemSet(SalesOrderID='SalesOrderID%207',ItemPosition='ItemPosition%207')",
		"type": "GWSAMPLE_BASIC.SalesOrderLineItem"
	},
	"ToHeader": {
		"__deferred": {
			"uri": "SalesOrderLineItemSet(SalesOrderID='SalesOrderID%207',ItemPosition='ItemPosition%207')/ToHeader"
		}
	},
	"ToProduct": {
		"__deferred": {
			"uri": "SalesOrderLineItemSet(SalesOrderID='SalesOrderID%207',ItemPosition='ItemPosition%207')/ToProduct"
		}
	}
}, {
	"SalesOrderID": "SalesOrderID 8",
	"ItemPosition": "ItemPosition 8",
	"ProductID": "ProductID 8",
	"Note": "Note 8",
	"NoteLanguage": "NoteLanguage 8",
	"CurrencyCode": "CurrencyCode 8",
	"GrossAmount": 3529.52,
	"NetAmount": 6040.12,
	"TaxAmount": 6131.59,
	"DeliveryDate": "/Date(1203941280000)/",
	"Quantity": 170.11,
	"QuantityUnit": "QuantityUnit 8",
	"__metadata": {
		"uri": "SalesOrderLineItemSet(SalesOrderID='SalesOrderID%208',ItemPosition='ItemPosition%208')",
		"type": "GWSAMPLE_BASIC.SalesOrderLineItem"
	},
	"ToHeader": {
		"__deferred": {
			"uri": "SalesOrderLineItemSet(SalesOrderID='SalesOrderID%208',ItemPosition='ItemPosition%208')/ToHeader"
		}
	},
	"ToProduct": {
		"__deferred": {
			"uri": "SalesOrderLineItemSet(SalesOrderID='SalesOrderID%208',ItemPosition='ItemPosition%208')/ToProduct"
		}
	}
}, {
	"SalesOrderID": "SalesOrderID 9",
	"ItemPosition": "ItemPosition 9",
	"ProductID": "ProductID 9",
	"Note": "Note 9",
	"NoteLanguage": "NoteLanguage 9",
	"CurrencyCode": "CurrencyCode 9",
	"GrossAmount": 4174.15,
	"NetAmount": 9368.22,
	"TaxAmount": 9258.15,
	"DeliveryDate": "/Date(1366024080000)/",
	"Quantity": 5242.49,
	"QuantityUnit": "QuantityUnit 9",
	"__metadata": {
		"uri": "SalesOrderLineItemSet(SalesOrderID='SalesOrderID%209',ItemPosition='ItemPosition%209')",
		"type": "GWSAMPLE_BASIC.SalesOrderLineItem"
	},
	"ToHeader": {
		"__deferred": {
			"uri": "SalesOrderLineItemSet(SalesOrderID='SalesOrderID%209',ItemPosition='ItemPosition%209')/ToHeader"
		}
	},
	"ToProduct": {
		"__deferred": {
			"uri": "SalesOrderLineItemSet(SalesOrderID='SalesOrderID%209',ItemPosition='ItemPosition%209')/ToProduct"
		}
	}
}, {
	"SalesOrderID": "SalesOrderID 10",
	"ItemPosition": "ItemPosition 10",
	"ProductID": "ProductID 10",
	"Note": "Note 10",
	"NoteLanguage": "NoteLanguage 10",
	"CurrencyCode": "CurrencyCode 10",
	"GrossAmount": 1328.86,
	"NetAmount": 7862.15,
	"TaxAmount": 947.16,
	"DeliveryDate": "/Date(1217675280000)/",
	"Quantity": 1896.13,
	"QuantityUnit": "QuantityUnit 10",
	"__metadata": {
		"uri": "SalesOrderLineItemSet(SalesOrderID='SalesOrderID%2010',ItemPosition='ItemPosition%2010')",
		"type": "GWSAMPLE_BASIC.SalesOrderLineItem"
	},
	"ToHeader": {
		"__deferred": {
			"uri": "SalesOrderLineItemSet(SalesOrderID='SalesOrderID%2010',ItemPosition='ItemPosition%2010')/ToHeader"
		}
	},
	"ToProduct": {
		"__deferred": {
			"uri": "SalesOrderLineItemSet(SalesOrderID='SalesOrderID%2010',ItemPosition='ItemPosition%2010')/ToProduct"
		}
	}
}]